{
  "project_info": {
    "project_number": "56410062925",
    "firebase_url": "https://bugsndrugs-2288d.firebaseio.com",
    "project_id": "bugsndrugs-2288d",
    "storage_bucket": "bugsndrugs-2288d.appspot.com"
  },
  "client": [
    {
      "client_info": {
        "mobilesdk_app_id": "1:56410062925:android:a1270acea85992fe675c04",
        "android_client_info": {
          "package_name": "com.majoriebash.bugsndrugs"
        }
      },
      "oauth_client": [
        {
          "client_id": "56410062925-abgooh2uhr37g7auedncfik51vs8vj5f.apps.googleusercontent.com",
          "client_type": 3
        }
      ],
      "api_key": [
        {
          "current_key": "AIzaSyBi0MU_HTgrpsEp_OkzIDOuVJfw7S1Gnaw"
        }
      ],
      "services": {
        "appinvite_service": {
          "other_platform_oauth_client": [
            {
              "client_id": "56410062925-abgooh2uhr37g7auedncfik51vs8vj5f.apps.googleusercontent.com",
              "client_type": 3
            }
          ]
        }
      }
    }
  ],
  "configuration_version": "1"
}