{
  "formatVersion": 1,
  "database": {
    "version": 1,
    "identityHash": "d1c21f9bf03787e45b2ff9833ab8764b",
    "entities": [
      {
        "tableName": "auth",
        "createSql": "CREATE TABLE IF NOT EXISTS `${TABLE_NAME}` (`id` INTEGER PRIMARY KEY AUTOINCREMENT, `name` TEXT, `insitution` TEXT, `address` TEXT, `profession` TEXT, `state` TEXT, `email` TEXT, `lga` TEXT, `role` TEXT, `access` TEXT, `number` TEXT, `dateCreated` INTEGER, `activated` INTEGER)",
        "fields": [
          {
            "fieldPath": "id",
            "columnName": "id",
            "affinity": "INTEGER",
            "notNull": false
          },
          {
            "fieldPath": "name",
            "columnName": "name",
            "affinity": "TEXT",
            "notNull": false
          },
          {
            "fieldPath": "insitution",
            "columnName": "insitution",
            "affinity": "TEXT",
            "notNull": false
          },
          {
            "fieldPath": "address",
            "columnName": "address",
            "affinity": "TEXT",
            "notNull": false
          },
          {
            "fieldPath": "profession",
            "columnName": "profession",
            "affinity": "TEXT",
            "notNull": false
          },
          {
            "fieldPath": "state",
            "columnName": "state",
            "affinity": "TEXT",
            "notNull": false
          },
          {
            "fieldPath": "email",
            "columnName": "email",
            "affinity": "TEXT",
            "notNull": false
          },
          {
            "fieldPath": "lga",
            "columnName": "lga",
            "affinity": "TEXT",
            "notNull": false
          },
          {
            "fieldPath": "role",
            "columnName": "role",
            "affinity": "TEXT",
            "notNull": false
          },
          {
            "fieldPath": "access",
            "columnName": "access",
            "affinity": "TEXT",
            "notNull": false
          },
          {
            "fieldPath": "number",
            "columnName": "number",
            "affinity": "TEXT",
            "notNull": false
          },
          {
            "fieldPath": "dateCreated",
            "columnName": "dateCreated",
            "affinity": "INTEGER",
            "notNull": false
          },
          {
            "fieldPath": "activated",
            "columnName": "activated",
            "affinity": "INTEGER",
            "notNull": false
          }
        ],
        "primaryKey": {
          "columnNames": [
            "id"
          ],
          "autoGenerate": true
        },
        "indices": [],
        "foreignKeys": []
      },
      {
        "tableName": "drugs",
        "createSql": "CREATE TABLE IF NOT EXISTS `${TABLE_NAME}` (`id` TEXT NOT NULL, `name` TEXT, `desc` TEXT, `type` TEXT, PRIMARY KEY(`id`))",
        "fields": [
          {
            "fieldPath": "id",
            "columnName": "id",
            "affinity": "TEXT",
            "notNull": true
          },
          {
            "fieldPath": "name",
            "columnName": "name",
            "affinity": "TEXT",
            "notNull": false
          },
          {
            "fieldPath": "desc",
            "columnName": "desc",
            "affinity": "TEXT",
            "notNull": false
          },
          {
            "fieldPath": "type",
            "columnName": "type",
            "affinity": "TEXT",
            "notNull": false
          }
        ],
        "primaryKey": {
          "columnNames": [
            "id"
          ],
          "autoGenerate": false
        },
        "indices": [],
        "foreignKeys": []
      },
      {
        "tableName": "bugs",
        "createSql": "CREATE TABLE IF NOT EXISTS `${TABLE_NAME}` (`id` TEXT NOT NULL, `name` TEXT, `desc` TEXT, PRIMARY KEY(`id`))",
        "fields": [
          {
            "fieldPath": "id",
            "columnName": "id",
            "affinity": "TEXT",
            "notNull": true
          },
          {
            "fieldPath": "name",
            "columnName": "name",
            "affinity": "TEXT",
            "notNull": false
          },
          {
            "fieldPath": "desc",
            "columnName": "desc",
            "affinity": "TEXT",
            "notNull": false
          }
        ],
        "primaryKey": {
          "columnNames": [
            "id"
          ],
          "autoGenerate": false
        },
        "indices": [],
        "foreignKeys": []
      },
      {
        "tableName": "ReportedBugs",
        "createSql": "CREATE TABLE IF NOT EXISTS `${TABLE_NAME}` (`id` INTEGER PRIMARY KEY AUTOINCREMENT, `Unique_Id` TEXT, `Age` INTEGER, `Gender` TEXT, `Hospital_Number` TEXT, `Patient_Setting` TEXT, `Diagnosis` TEXT, `Specimen_Type` TEXT, `Bugs` TEXT, `Antibiotic` TEXT, `Sensitivity` TEXT, `dateCreated` INTEGER, `Created_By` TEXT, `Active` INTEGER)",
        "fields": [
          {
            "fieldPath": "id",
            "columnName": "id",
            "affinity": "INTEGER",
            "notNull": false
          },
          {
            "fieldPath": "uniqueId",
            "columnName": "Unique_Id",
            "affinity": "TEXT",
            "notNull": false
          },
          {
            "fieldPath": "age",
            "columnName": "Age",
            "affinity": "INTEGER",
            "notNull": false
          },
          {
            "fieldPath": "gender",
            "columnName": "Gender",
            "affinity": "TEXT",
            "notNull": false
          },
          {
            "fieldPath": "hospitalNumber",
            "columnName": "Hospital_Number",
            "affinity": "TEXT",
            "notNull": false
          },
          {
            "fieldPath": "patientSetting",
            "columnName": "Patient_Setting",
            "affinity": "TEXT",
            "notNull": false
          },
          {
            "fieldPath": "diagnosis",
            "columnName": "Diagnosis",
            "affinity": "TEXT",
            "notNull": false
          },
          {
            "fieldPath": "specimentType",
            "columnName": "Specimen_Type",
            "affinity": "TEXT",
            "notNull": false
          },
          {
            "fieldPath": "bugs",
            "columnName": "Bugs",
            "affinity": "TEXT",
            "notNull": false
          },
          {
            "fieldPath": "antibiotic",
            "columnName": "Antibiotic",
            "affinity": "TEXT",
            "notNull": false
          },
          {
            "fieldPath": "sensitivity",
            "columnName": "Sensitivity",
            "affinity": "TEXT",
            "notNull": false
          },
          {
            "fieldPath": "dateCreated",
            "columnName": "dateCreated",
            "affinity": "INTEGER",
            "notNull": false
          },
          {
            "fieldPath": "createdBy",
            "columnName": "Created_By",
            "affinity": "TEXT",
            "notNull": false
          },
          {
            "fieldPath": "active",
            "columnName": "Active",
            "affinity": "INTEGER",
            "notNull": false
          }
        ],
        "primaryKey": {
          "columnNames": [
            "id"
          ],
          "autoGenerate": true
        },
        "indices": [],
        "foreignKeys": []
      },
      {
        "tableName": "ReportedDrugs",
        "createSql": "CREATE TABLE IF NOT EXISTS `${TABLE_NAME}` (`id` INTEGER PRIMARY KEY AUTOINCREMENT, `Unique_Id` TEXT, `Age` INTEGER, `Gender` TEXT, `Hospital_Number` TEXT, `Diagnosis` TEXT, `Patient_Setting` TEXT, `Route` TEXT, `Drugs` TEXT, `Dose` TEXT, `Duration` TEXT, `Frequency` TEXT, `dateCreated` INTEGER, `Created_By` TEXT, `Active` INTEGER)",
        "fields": [
          {
            "fieldPath": "id",
            "columnName": "id",
            "affinity": "INTEGER",
            "notNull": false
          },
          {
            "fieldPath": "uniqueId",
            "columnName": "Unique_Id",
            "affinity": "TEXT",
            "notNull": false
          },
          {
            "fieldPath": "age",
            "columnName": "Age",
            "affinity": "INTEGER",
            "notNull": false
          },
          {
            "fieldPath": "gender",
            "columnName": "Gender",
            "affinity": "TEXT",
            "notNull": false
          },
          {
            "fieldPath": "hospitalNumber",
            "columnName": "Hospital_Number",
            "affinity": "TEXT",
            "notNull": false
          },
          {
            "fieldPath": "diagnosis",
            "columnName": "Diagnosis",
            "affinity": "TEXT",
            "notNull": false
          },
          {
            "fieldPath": "patientSetting",
            "columnName": "Patient_Setting",
            "affinity": "TEXT",
            "notNull": false
          },
          {
            "fieldPath": "route",
            "columnName": "Route",
            "affinity": "TEXT",
            "notNull": false
          },
          {
            "fieldPath": "drugs",
            "columnName": "Drugs",
            "affinity": "TEXT",
            "notNull": false
          },
          {
            "fieldPath": "dose",
            "columnName": "Dose",
            "affinity": "TEXT",
            "notNull": false
          },
          {
            "fieldPath": "duration",
            "columnName": "Duration",
            "affinity": "TEXT",
            "notNull": false
          },
          {
            "fieldPath": "frequency",
            "columnName": "Frequency",
            "affinity": "TEXT",
            "notNull": false
          },
          {
            "fieldPath": "dateCreated",
            "columnName": "dateCreated",
            "affinity": "INTEGER",
            "notNull": false
          },
          {
            "fieldPath": "createdBy",
            "columnName": "Created_By",
            "affinity": "TEXT",
            "notNull": false
          },
          {
            "fieldPath": "active",
            "columnName": "Active",
            "affinity": "INTEGER",
            "notNull": false
          }
        ],
        "primaryKey": {
          "columnNames": [
            "id"
          ],
          "autoGenerate": true
        },
        "indices": [],
        "foreignKeys": []
      },
      {
        "tableName": "users",
        "createSql": "CREATE TABLE IF NOT EXISTS `${TABLE_NAME}` (`id` INTEGER PRIMARY KEY AUTOINCREMENT, `name` TEXT, `institution` TEXT, `address` TEXT, `profession` TEXT, `state` TEXT, `email` TEXT, `lga` TEXT, `role` TEXT, `access` TEXT, `number` TEXT, `dateCreated` INTEGER, `activated` INTEGER)",
        "fields": [
          {
            "fieldPath": "id",
            "columnName": "id",
            "affinity": "INTEGER",
            "notNull": false
          },
          {
            "fieldPath": "name",
            "columnName": "name",
            "affinity": "TEXT",
            "notNull": false
          },
          {
            "fieldPath": "institution",
            "columnName": "institution",
            "affinity": "TEXT",
            "notNull": false
          },
          {
            "fieldPath": "address",
            "columnName": "address",
            "affinity": "TEXT",
            "notNull": false
          },
          {
            "fieldPath": "profession",
            "columnName": "profession",
            "affinity": "TEXT",
            "notNull": false
          },
          {
            "fieldPath": "state",
            "columnName": "state",
            "affinity": "TEXT",
            "notNull": false
          },
          {
            "fieldPath": "email",
            "columnName": "email",
            "affinity": "TEXT",
            "notNull": false
          },
          {
            "fieldPath": "lga",
            "columnName": "lga",
            "affinity": "TEXT",
            "notNull": false
          },
          {
            "fieldPath": "role",
            "columnName": "role",
            "affinity": "TEXT",
            "notNull": false
          },
          {
            "fieldPath": "access",
            "columnName": "access",
            "affinity": "TEXT",
            "notNull": false
          },
          {
            "fieldPath": "number",
            "columnName": "number",
            "affinity": "TEXT",
            "notNull": false
          },
          {
            "fieldPath": "dateCreated",
            "columnName": "dateCreated",
            "affinity": "INTEGER",
            "notNull": false
          },
          {
            "fieldPath": "activated",
            "columnName": "activated",
            "affinity": "INTEGER",
            "notNull": false
          }
        ],
        "primaryKey": {
          "columnNames": [
            "id"
          ],
          "autoGenerate": true
        },
        "indices": [],
        "foreignKeys": []
      }
    ],
    "views": [],
    "setupQueries": [
      "CREATE TABLE IF NOT EXISTS room_master_table (id INTEGER PRIMARY KEY,identity_hash TEXT)",
      "INSERT OR REPLACE INTO room_master_table (id,identity_hash) VALUES(42, 'd1c21f9bf03787e45b2ff9833ab8764b')"
    ]
  }
}